%!PS-Adobe-3.0 EPSF-3.0
%%Creator: cairo 1.15.8 (http://cairographics.org)
%%CreationDate: Sat Oct 21 12:18:41 2017
%%Pages: 1
%%DocumentData: Clean7Bit
%%LanguageLevel: 2
%%BoundingBox: 37 360 584 612
%%EndComments
%%BeginProlog
save
50 dict begin
/q { gsave } bind def
/Q { grestore } bind def
/cm { 6 array astore concat } bind def
/w { setlinewidth } bind def
/J { setlinecap } bind def
/j { setlinejoin } bind def
/M { setmiterlimit } bind def
/d { setdash } bind def
/m { moveto } bind def
/l { lineto } bind def
/c { curveto } bind def
/h { closepath } bind def
/re { exch dup neg 3 1 roll 5 3 roll moveto 0 rlineto
      0 exch rlineto 0 rlineto closepath } bind def
/S { stroke } bind def
/f { fill } bind def
/f* { eofill } bind def
/n { newpath } bind def
/W { clip } bind def
/W* { eoclip } bind def
/BT { } bind def
/ET { } bind def
/pdfmark where { pop globaldict /?pdfmark /exec load put }
    { globaldict begin /?pdfmark /pop load def /pdfmark
    /cleartomark load def end } ifelse
/BDC { mark 3 1 roll /BDC pdfmark } bind def
/EMC { mark /EMC pdfmark } bind def
/cairo_store_point { /cairo_point_y exch def /cairo_point_x exch def } def
/Tj { show currentpoint cairo_store_point } bind def
/TJ {
  {
    dup
    type /stringtype eq
    { show } { -0.001 mul 0 cairo_font_matrix dtransform rmoveto } ifelse
  } forall
  currentpoint cairo_store_point
} bind def
/cairo_selectfont { cairo_font_matrix aload pop pop pop 0 0 6 array astore
    cairo_font exch selectfont cairo_point_x cairo_point_y moveto } bind def
/Tf { pop /cairo_font exch def /cairo_font_matrix where
      { pop cairo_selectfont } if } bind def
/Td { matrix translate cairo_font_matrix matrix concatmatrix dup
      /cairo_font_matrix exch def dup 4 get exch 5 get cairo_store_point
      /cairo_font where { pop cairo_selectfont } if } bind def
/Tm { 2 copy 8 2 roll 6 array astore /cairo_font_matrix exch def
      cairo_store_point /cairo_font where { pop cairo_selectfont } if } bind def
/g { setgray } bind def
/rg { setrgbcolor } bind def
/d1 { setcachedevice } bind def
/cairo_flush_ascii85_file { cairo_ascii85_file status { cairo_ascii85_file flushfile } if } def
/cairo_image { image cairo_flush_ascii85_file } def
/cairo_imagemask { imagemask cairo_flush_ascii85_file } def
%%EndProlog
%%BeginSetup
%%EndSetup
%%Page: 1 1
%%BeginPageSetup
%%PageBoundingBox: 37 360 584 612
%%EndPageSetup
q 37 360 547 252 rectclip
1 0 0 -1 0 792 cm q
q
0 0 612 792 re W n
  q
0.901961 0.160784 0.160784 rg
65.594 283.977 m 47.543 283.977 l 60.801 234.617 l 78.852 234.617 l 83.082
 217.977 89.566 205.852 98.027 197.391 c 109.875 185.543 126.23 180.75 147.949
 180.75 c 162.332 180.75 173.613 182.441 186.871 186.391 c 176.152 226.156
 l 170.512 224.184 163.746 223.055 158.668 223.055 c 148.23 223.055 143.719
 226.723 141.461 235.184 c 141.18 236.309 l 209.188 236.309 l 194.32 283.977
 l 129.617 283.977 l 101.695 388.613 l 37.672 388.613 l h
65.594 283.977 m f
108.305 372.414 m 136.504 335.75 l 150.328 346.75 174.301 356.617 191.785
 356.617 c 198.273 356.617 200.812 354.082 200.812 351.262 c 200.812 346.184
 196.02 343.645 176.84 336.594 c 152.02 327.57 134.816 316.289 134.816 292.031
 c 134.816 261.289 160.762 236.754 207.016 236.754 c 238.043 236.754 277.793
 252.355 293.305 264.203 c 264.684 285.867 l 251.633 285.867 219.727 285.504
 204.496 285.504 c 197.445 285.504 194.629 289.164 194.629 292.262 c 194.629
 296.492 198.016 298.188 216.91 304.957 c 241.449 313.699 260.605 318.707
 260.605 345.781 c 260.605 371.445 242.555 398.078 190.66 398.078 c 155.688
 398.078 127.199 386.797 108.305 372.414 c f
0.117647 0.623529 0.85098 rg
249.727 351.785 m 249.727 345.297 250.855 338.246 252.828 330.352 c 264.676
 285.789 l 246.625 285.789 l 184.168 236.43 l 277.93 236.43 l 288.367 197.793
 l 352.387 197.793 l 341.953 236.43 l 377.488 236.43 l 364.234 285.789 l
 328.699 285.789 l 319.953 318.789 l 318.543 323.863 317.98 327.531 317.98
 330.633 c 317.98 337.121 321.93 340.504 330.953 340.504 c 336.031 340.504
 340.543 339.66 349.57 337.121 c 335.746 389.297 l 324.75 392.117 314.031
 393.809 303.312 393.809 c 267.211 393.809 249.727 379.988 249.727 351.785
 c f
0.113725 0.113725 0.105882 rg
356.414 345.828 m 371.445 345.828 l 362.84 377.941 l 383.328 377.941 l 
379.859 390.789 l 344.34 390.789 l h
356.414 345.828 m f
394.055 345.828 m 409.086 345.828 l 397.008 390.789 l 381.98 390.789 l 
h
394.055 345.828 m f
400.352 383.531 m 408.957 373.254 l 414.098 377.555 419.363 379.613 424.117
 379.613 c 426.043 379.613 427.395 378.906 427.395 377.621 c 427.395 376.207
 426.555 375.758 420.004 373.316 c 411.656 370.234 407.738 367.281 407.738
 360.664 c 407.738 356.875 409.277 353.406 411.977 350.711 c 415.508 347.176
 421.031 344.926 427.969 344.926 c 436 344.926 443.129 347.496 448.012 351.672
 c 439.402 361.949 l 436 359.188 431.18 356.938 426.43 356.938 c 424.5 356.938
 423.152 357.453 423.152 358.738 c 423.152 360.086 424.117 360.344 430.344
 362.656 c 437.992 365.48 442.871 368.691 442.871 375.566 c 442.871 379.613
 441.395 383.273 438.57 386.098 c 435.164 389.504 429.641 391.688 422.512
 391.688 c 413.582 391.688 405.812 388.477 400.352 383.531 c f
469.656 363.488 m 473.512 363.488 475.246 361.758 475.246 359.828 c 475.246
 357.965 473.832 357.195 470.621 357.195 c 464.391 357.195 l 462.719 363.488
 l h
465.676 379.418 m 469.336 379.418 471.52 377.812 471.52 375.566 c 471.52
 373.641 469.914 372.738 466.703 372.738 c 460.215 372.738 l 458.414 379.418
 l h
452.828 345.828 m 472.738 345.828 l 486.551 345.828 489.891 350.902 489.891
 356.426 c 489.891 361.887 486.227 366.445 479.355 368.242 c 483.594 369.336
 486.676 372.484 486.676 377.105 c 486.676 384.688 480.641 390.789 465.223
 390.789 c 440.754 390.789 l h
452.828 345.828 m f
519.629 375.629 m 521.941 373.316 523.289 369.914 523.289 366.637 c 523.289
 361.883 520.398 358.16 515.004 358.16 c 512.305 358.16 510.059 359.25 508.324
 360.984 c 506.012 363.297 504.664 366.703 504.664 369.977 c 504.664 374.73
 507.555 378.457 512.945 378.457 c 515.645 378.457 517.895 377.363 519.629
 375.629 c 538.383 365.289 m 538.383 372.418 535.43 379.098 530.547 383.98
 c 525.859 388.668 519.309 391.688 511.918 391.688 c 498.691 391.688 489.566
 382.824 489.566 371.328 c 489.566 364.195 492.523 357.516 497.402 352.633
 c 502.094 347.945 508.645 344.926 516.031 344.926 c 529.262 344.926 538.383
 353.793 538.383 365.289 c f
564.719 374.09 m 563.5 363.168 l 556.496 374.09 l h
560.609 345.508 m 575.508 345.508 l 582.32 390.789 l 566.324 390.789 l 
565.555 384.75 l 549.82 384.75 l 545.898 390.789 l 529.52 390.789 l h
560.609 345.508 m f
256.344 424.477 m 257.594 422.996 l 259.461 424.68 261.25 425.527 263.727
 425.527 c 266.129 425.527 267.715 424.25 267.715 422.484 c 267.715 422.434
 l 267.715 420.773 266.816 419.828 263.062 419.035 c 258.949 418.141 257.059
 416.812 257.059 413.875 c 257.059 413.824 l 257.059 411.012 259.535 408.945
 262.934 408.945 c 265.543 408.945 267.406 409.684 269.219 411.141 c 268.043
 412.699 l 266.383 411.344 264.723 410.758 262.883 410.758 c 260.559 410.758
 259.078 412.035 259.078 413.645 c 259.078 413.695 l 259.078 415.383 259.996
 416.328 263.93 417.168 c 267.918 418.039 269.758 419.496 269.758 422.227
 c 269.758 422.281 l 269.758 425.348 267.203 427.34 263.648 427.34 c 260.812
 427.34 258.488 426.395 256.344 424.477 c f
284.223 420.52 m 284.223 420.465 l 284.223 417.348 282.074 415.355 279.57
 415.355 c 277.117 415.355 274.793 417.426 274.793 420.441 c 274.793 420.492
 l 274.793 423.559 277.117 425.602 279.57 425.602 c 282.125 425.602 284.223
 423.711 284.223 420.52 c 272.902 413.875 m 274.871 413.875 l 274.871 416.531
 l 275.941 414.949 277.5 413.594 279.93 413.594 c 283.098 413.594 286.242
 416.098 286.242 420.441 c 286.242 420.492 l 286.242 424.812 283.121 427.363
 279.93 427.363 c 277.477 427.363 275.895 426.039 274.871 424.555 c 274.871
 431.172 l 272.902 431.172 l h
272.902 413.875 m f
300.168 420.543 m 300.168 420.492 l 300.168 417.656 298.047 415.328 295.262
 415.328 c 292.402 415.328 290.434 417.656 290.434 420.441 c 290.434 420.492
 l 290.434 423.328 292.531 425.629 295.316 425.629 c 298.176 425.629 300.168
 423.328 300.168 420.543 c 288.414 420.543 m 288.414 420.492 l 288.414 416.762
 291.328 413.594 295.316 413.594 c 299.273 413.594 302.188 416.711 302.188
 420.441 c 302.188 420.492 l 302.188 424.223 299.25 427.391 295.262 427.391
 c 291.301 427.391 288.414 424.273 288.414 420.543 c f
305.105 413.875 m 307.07 413.875 l 307.07 416.176 l 307.941 414.742 309.32
 413.594 311.594 413.594 c 314.789 413.594 316.652 415.738 316.652 418.883
 c 316.652 427.086 l 314.688 427.086 l 314.688 419.367 l 314.688 416.914
 313.355 415.383 311.031 415.383 c 308.758 415.383 307.07 417.043 307.07
 419.52 c 307.07 427.086 l 305.105 427.086 l h
305.105 413.875 m f
319.109 425.398 m 320.105 423.992 l 321.539 425.066 323.121 425.68 324.68
 425.68 c 326.262 425.68 327.414 424.859 327.414 423.586 c 327.414 423.531
 l 327.414 422.203 325.855 421.691 324.117 421.207 c 322.047 420.621 319.75
 419.902 319.75 417.477 c 319.75 417.426 l 319.75 415.152 321.637 413.645
 324.246 413.645 c 325.855 413.645 327.641 414.207 328.996 415.102 c 328.102
 416.582 l 326.875 415.789 325.473 415.305 324.195 415.305 c 322.633 415.305
 321.637 416.121 321.637 417.223 c 321.637 417.273 l 321.637 418.523 323.273
 419.012 325.039 419.547 c 327.082 420.16 329.277 420.953 329.277 423.328
 c 329.277 423.379 l 329.277 425.883 327.211 427.34 324.578 427.34 c 322.688
 427.34 320.59 426.598 319.109 425.398 c f
343.23 420.543 m 343.23 420.492 l 343.23 417.656 341.113 415.328 338.324
 415.328 c 335.465 415.328 333.496 417.656 333.496 420.441 c 333.496 420.492
 l 333.496 423.328 335.594 425.629 338.379 425.629 c 341.238 425.629 343.23
 423.328 343.23 420.543 c 331.477 420.543 m 331.477 420.492 l 331.477 416.762
 334.391 413.594 338.379 413.594 c 342.336 413.594 345.25 416.711 345.25
 420.441 c 345.25 420.492 l 345.25 424.223 342.312 427.391 338.324 427.391
 c 334.367 427.391 331.477 424.273 331.477 420.543 c f
348.168 413.875 m 350.137 413.875 l 350.137 417.324 l 351.105 415.125 353.02
 413.543 355.523 413.645 c 355.523 415.766 l 355.371 415.766 l 352.484 415.766
 350.137 417.836 350.137 421.82 c 350.137 427.086 l 348.168 427.086 l h
348.168 413.875 m f
367 419.75 m 366.797 417.348 365.414 415.254 362.785 415.254 c 360.484 
415.254 358.746 417.172 358.492 419.75 c h
356.5 420.52 m 356.5 420.465 l 356.5 416.66 359.184 413.594 362.836 413.594
 c 366.742 413.594 368.992 416.711 368.992 420.566 c 368.992 420.824 368.992
 420.977 368.969 421.207 c 358.492 421.207 l 358.773 424.066 360.789 425.68
 363.145 425.68 c 364.957 425.68 366.234 424.938 367.309 423.812 c 368.531
 424.91 l 367.203 426.395 365.594 427.391 363.09 427.391 c 359.461 427.391
 356.5 424.605 356.5 420.52 c f
382.488 420.492 m 382.488 420.441 l 382.488 417.398 380.164 415.355 377.711
 415.355 c 375.152 415.355 373.059 417.246 373.059 420.441 c 373.059 420.492
 l 373.059 423.609 375.23 425.602 377.711 425.602 c 380.164 425.602 382.488
 423.531 382.488 420.492 c 371.039 420.516 m 371.039 420.465 l 371.039 416.148
 374.184 413.594 377.352 413.594 c 379.805 413.594 381.387 414.922 382.41
 416.402 c 382.41 408.43 l 384.379 408.43 l 384.379 427.086 l 382.41 427.086
 l 382.41 424.426 l 381.34 426.012 379.777 427.363 377.352 427.363 c 374.184
 427.363 371.039 424.859 371.039 420.516 c f
406.484 420.52 m 406.484 420.465 l 406.484 417.348 404.34 415.355 401.836
 415.355 c 399.379 415.355 397.055 417.426 397.055 420.441 c 397.055 420.492
 l 397.055 423.559 399.379 425.602 401.836 425.602 c 404.387 425.602 406.484
 423.711 406.484 420.52 c 397.133 424.555 m 397.133 427.082 l 395.164 427.082
 l 395.164 408.43 l 397.133 408.43 l 397.133 416.531 l 398.207 414.949 399.766
 413.594 402.191 413.594 c 405.359 413.594 408.504 416.098 408.504 420.441
 c 408.504 420.492 l 408.504 424.812 405.383 427.363 402.191 427.363 c 399.738
 427.363 398.156 426.039 397.133 424.555 c f
420.746 413.875 m 422.84 413.875 l 417.297 427.52 l 416.172 430.254 414.895
 431.246 412.898 431.246 c 411.801 431.246 410.984 431.02 410.09 430.586
 c 410.754 429.027 l 411.395 429.359 411.98 429.512 412.824 429.512 c 414
 429.512 414.738 428.898 415.531 427.031 c 409.527 413.875 l 411.699 413.875
 l 416.504 424.887 l h
420.746 413.875 m f
431.172 409.199 m 436.77 409.199 l 443.133 417.094 l 443.133 409.199 l 
449.059 409.199 l 449.059 427.082 l 443.746 427.082 l 437.102 418.832 l 
437.102 427.082 l 431.172 427.082 l h
431.172 409.199 m f
463.551 418.191 m 463.551 418.141 l 463.551 416.02 462.094 414.105 459.793
 414.105 c 457.523 414.105 456.09 415.996 456.09 418.09 c 456.09 418.141
 l 456.09 420.262 457.547 422.176 459.848 422.176 c 462.121 422.176 463.551
 420.289 463.551 418.191 c 450.062 418.191 m 450.062 418.141 l 450.062 412.953
 454.328 408.812 459.848 408.812 c 465.363 408.812 469.582 412.902 469.582
 418.09 c 469.582 418.141 l 469.582 423.328 465.312 427.469 459.793 427.469
 c 454.277 427.469 450.062 423.379 450.062 418.191 c f
468.129 409.199 m 474.824 409.199 l 478.297 419.238 l 481.773 409.199 l
 488.367 409.199 l 481.109 427.211 l 475.387 427.211 l h
468.129 409.199 m f
496.699 420.441 m 495.062 416.098 l 493.43 420.441 l h
492.152 409.07 m 498.078 409.07 l 505.617 427.086 l 499.129 427.086 l 498.18
 424.68 l 491.922 424.68 l 491.004 427.086 l 484.613 427.086 l h
492.152 409.07 m f
514.562 419.906 m 511.547 419.906 l 511.547 422.562 l 514.539 422.562 l
 515.84 422.562 516.504 422.023 516.504 421.258 c 516.504 421.207 l 516.504
 420.441 515.867 419.906 514.562 419.906 c 516.047 414.949 m 516.047 414.156
 515.406 413.719 514.129 413.719 c 511.547 413.719 l 511.547 416.223 l 514.156
 416.223 l 515.43 416.223 516.047 415.793 516.047 415 c h
505.723 409.199 m 515.738 409.199 l 518.219 409.199 519.777 409.758 520.824
 410.809 c 521.461 411.449 521.922 412.367 521.922 413.594 c 521.922 413.645
 l 521.922 415.766 520.645 417.066 518.727 417.73 c 521.027 418.395 522.508
 419.625 522.508 422.078 c 522.508 422.129 l 522.508 424.988 520.16 427.086
 515.637 427.086 c 505.723 427.086 l h
505.723 409.199 m f
533.961 420.441 m 532.324 416.098 l 530.691 420.441 l h
529.41 409.07 m 535.34 409.07 l 542.879 427.086 l 536.387 427.086 l 535.441
 424.68 l 529.184 424.68 l 528.266 427.086 l 521.875 427.086 l h
529.41 409.07 m f
541.246 424.402 m 544.441 420.594 l 546.383 422.078 548.605 422.688 550.699
 422.688 c 551.773 422.688 552.234 422.41 552.234 421.922 c 552.234 421.871
 l 552.234 421.359 551.672 421.078 549.754 420.695 c 545.742 419.879 542.219
 418.727 542.219 414.949 c 542.219 414.895 l 542.219 411.5 544.875 408.867
 549.805 408.867 c 553.258 408.867 555.809 409.684 557.879 411.32 c 554.969
 415.355 l 553.281 414.129 551.262 413.594 549.602 413.594 c 548.707 413.594
 548.301 413.898 548.301 414.336 c 548.301 414.383 l 548.301 414.871 548.785
 415.176 550.676 415.535 c 555.25 416.379 558.312 417.707 558.312 421.309
 c 558.312 421.359 l 558.312 425.117 555.223 427.418 550.422 427.418 c 546.793
 427.418 543.52 426.395 541.246 424.402 c f
559.059 409.199 m 574.312 409.199 l 574.312 414.105 l 564.938 414.105 l
 564.938 415.918 l 573.676 415.918 l 573.676 420.234 l 564.938 420.234 l
 564.938 422.18 l 574.441 422.18 l 574.441 427.082 l 559.059 427.082 l h
559.059 409.199 m f
579.785 413.312 m 580.371 413.312 580.707 413.004 580.707 412.57 c 580.707
 412.086 580.371 411.828 579.785 411.828 c 578.684 411.828 l 578.684 413.312
 l h
577.816 411.062 m 579.859 411.062 l 580.855 411.062 581.598 411.547 581.598
 412.496 c 581.598 413.234 581.164 413.695 580.551 413.875 c 581.754 415.586
 l 580.707 415.586 l 579.633 414.027 l 578.684 414.027 l 578.684 415.586
 l 577.816 415.586 l h
583.488 413.414 m 583.488 413.387 l 583.488 411.215 581.805 409.426 579.555
 409.426 c 577.332 409.426 575.621 411.242 575.621 413.414 c 575.621 413.441
 l 575.621 415.613 577.305 417.398 579.555 417.398 c 581.777 417.398 583.488
 415.586 583.488 413.414 c 575.109 413.441 m 575.109 413.414 l 575.109 410.988
 577.078 408.941 579.555 408.941 c 582.059 408.941 584 410.961 584 413.387
 c 584 413.414 l 584 415.84 582.031 417.887 579.555 417.887 c 577.051 417.887
 575.109 415.867 575.109 413.441 c f
  Q
Q
Q Q
showpage
%%Trailer
end restore
%%EOF
